Mid-Term Exam #1
…
5 points

I hypothesize that countries that share similar regime types are more likely to sign mutual defense agreements with each other than countries that do not share similar regimes. Use the alliances_regime data set from the polisciols R package to answer the following questions.

Part A

Note

2/2

Construct a cross tab of these variables.

polisciols::alliances_regime

# A tibble: 18,915 × 4
   country_1     country_2          defense_agreement regime_dyad
   <chr>         <chr>              <fct>             <chr>      
 1 United States Canada             Yes               Joint      
 2 United States Bahamas            Yes               Mixed      
 3 United States Cuba               No                Mixed      
 4 United States Haiti              Yes               Joint      
 5 United States Dominican Republic Yes               Joint      
 6 United States Jamaica            Yes               Joint      
 7 United States Trinidad & Tobago  Yes               Joint      
 8 United States Barbados           Yes               Mixed      
 9 United States Dominica           Yes               Mixed      
10 United States Grenada            Yes               Mixed      
# ℹ 18,905 more rows
…
