Problem Set 1
…
2/2

What was the most common highest level of education obtained by respondents? What was the least common? Use the education variable from the nes data set to answer these questions.

library(tidyverse)
library(polisciols)
library(wbstats)
library(janitor)
library(skimr)
library(countrycode)
library(scales)

polisciols::nes

# A tibble: 8,280 × 7
   respondent_id attention_to_politics education     age therm_biden therm_trump
           <dbl> <ord>                 <ord>       <dbl>       <dbl>       <dbl>
 1        200015 Most of the time      Bachelor’s…    46           0         100
 2        200022 Some of the time      Some post-…    37           0           0
 3        200039 Always                High schoo…    40          65           0
 4        200046 Most of the time      Some post-…    41          70          15
 5        200053 Most of the time      Graduate d…    72          15          85
 6        200060 Always                Some post-…    71          85           0
 7        200084 Some of the time      Some post-…    37          50          75
 8        200091 Some of the time      High schoo…    45          50         100
 9        200107 About half the time   High schoo…    70          85           0
10        200114 Most of the time      Some post-…    43          85           0
# ℹ 8,270 more rows
# ℹ 1 more variable: income_gap <ord>
…
The ANES also asked each respondent how often they pay attention to what is going on in government and politics. Let’s use these responses to learn more about how much attention US voters pay to politics ahead of a Presidential election.

Part A

Points: 2

Note

2/2

How often did individuals pay attention to what was going on in government and politics? What was the most popular level of attention? What was the least? Use the attention_to_politics variable from the nes data set to answer these questions.

polisciols::nes

# A tibble: 8,280 × 7
   respondent_id attention_to_politics education     age therm_biden therm_trump
           <dbl> <ord>                 <ord>       <dbl>       <dbl>       <dbl>
 1        200015 Most of the time      Bachelor’s…    46           0         100
 2        200022 Some of the time      Some post-…    37           0           0
 3        200039 Always                High schoo…    40          65           0
 4        200046 Most of the time      Some post-…    41          70          15
 5        200053 Most of the time      Graduate d…    72          15          85
 6        200060 Always                Some post-…    71          85           0
 7        200084 Some of the time      Some post-…    37          50          75
 8        200091 Some of the time      High schoo…    45          50         100
 9        200107 About half the time   High schoo…    70          85           0
10        200114 Most of the time      Some post-…    43          85           0
# ℹ 8,270 more rows
# ℹ 1 more variable: income_gap <ord>
…
